%YAML 1.1
%TAG !u! tag:unity3d.com,2011:
--- !u!1045 &1
EditorBuildSettings:
  m_ObjectHideFlags: 0
  serializedVersion: 2
  m_Scenes:
  - enabled: 1
    path: Assets/Scenes/Main Menu.unity
    guid: 1fc2f4669afa24c4c868d97dd93ae131
  - enabled: 1
    path: Assets/Scenes/Test level.unity
    guid: 44f68993d4a8c0645924f57dd1c8a8ac
  - enabled: 0
    path: 
    guid: 00000000000000000000000000000000
  m_configObjects: {}
